{
  "name": "drupal/paragraphs_gridstack",
  "type": "drupal-module",
  "description": "Provides a new paragraphs behavior plugin for dashboard layout and creation.",
  "keywords": ["Drupal"],
  "license": "GPL-2.0-or-later",
  "homepage": "https://www.drupal.org/project/paragraphs_gridstack",
  "minimum-stability": "dev",
  "authors": [
    {
      "name": "Yura Panchuk (Panchuk)",
      "homepage": "https://www.drupal.org/u/panchuk",
      "role": "Maintainer"
    },
    {
      "name": "Bohdan Minich (boddy)",
      "homepage": "https://www.drupal.org/u/boddy",
      "role": "Maintainer"
    }
  ],
  "support": {
    "issues": "https://www.drupal.org/project/issues/paragraphs_gridstack",
    "source": "https://git.drupalcode.org/project/paragraphs_gridstack"
  },
  "repositories": {
    "gridstack/gridstack": {
      "type": "package",
      "package": {
        "name": "gridstack/gridstack",
        "version": "8.2.1",
        "type": "drupal-library",
        "dist": {
          "url": "https://registry.npmjs.org/gridstack/-/gridstack-8.2.1.tgz",
          "type": "tar"
        }
      }
    }
  },
  "require": {
    "composer/installers": "*",
    "gridstack/gridstack": "8.2.1"
  }
}
